A Class of Their Own: Supportive Housing in Small and Mid-Size Cities
…
mtw_part_codes %>% count(cohort)

## # A tibble: 4 x 2
##   cohort                                      n
##   <chr>                                   <int>
## 1 Initial                                    41
## 2 Landlord Incentives Cohort                 18
## 3 MTW Flexibility for Smaller PHAs Cohort    31
## 4 Stepped and Tiered Rent Cohort             10

full_join(mtw_part_codes, mtw_phas, by = "pha_name") %>% 
  campfin::flag_dupes(pha_name)

## # A tibble: 116 x 8
##    pha_name    participant_code mtw_flag.x cohort.x state_ab mtw_flag.y cohort.y
##    <chr>       <chr>                 <dbl> <chr>    <chr>         <dbl> <chr>   
##  1 alaska hou~ AK001                     1 Initial  AK                1 Initial 
##  2 alaska hou~ AK901                     1 Initial  AK                1 Initial 
##  3 housing au~ AL007                     1 Landlor~ AL                1 Landlor~
##  4 ha auburn   AL050                     1 MTW Fle~ AL                1 MTW Fle~
##  5 sheffield ~ AL068                     1 MTW Fle~ AL                1 MTW Fle~
##  6 housing au~ AL073                     1 MTW Fle~ AL                1 MTW Fle~
##  7 fayettevil~ AR181                     1 MTW Fle~ AR                1 MTW Fle~
##  8 oakland ho~ CA003                     1 Initial  CA                1 Initial 
##  9 housing au~ CA008                     1 Stepped~ CA                1 Stepped~
## 10 housing au~ CA014                     1 Initial  CA                1 Initial 
## # ... with 106 more rows, and 1 more variable: dupe_flag <lgl>
…
#how many mtw phas serve a city
mtw_serving %>% 
  group_by(pha_name, cohort) %>% 
  summarize(smallest_served = min(size_type)) %>% 
  count(smallest_served)

## # A tibble: 97 x 3
## # Groups:   pha_name [97]
##    pha_name                                  smallest_served          n
##    <chr>                                     <chr>                <int>
##  1 akron metropolitan housing authority      mid (150-500k)           1
##  2 alaska housing finance corporation        mid (150-500k)           1
##  3 ann arbor housing commission              small-mid (100-150k)     1
##  4 berkeley housing authority                small-mid (100-150k)     1
##  5 boulder housing partners                  small-mid (100-150k)     1
##  6 brattleboro housing authority             <NA>                     1
##  7 bristol redevelopment & housing authority <NA>                     1
##  8 brockton housing authority                small (50-100k)          1
##  9 burlington housing authority              <NA>                     1
## 10 cambridge housing authority               small-mid (100-150k)     1
## # ... with 87 more rows

#how many target cities does each mtw pha serve
mtw_serving %>%
  mutate(target_size = case_when(
    size_type %in% c("small (50-100k)", "small-mid (100-150k)", "mid (150-500k)") ~ 1,
    T ~ 0
  )) %>% 
  group_by(pha_name, cohort) %>% 
  summarize(target_cities_served = sum(target_size))

## # A tibble: 97 x 3
## # Groups:   pha_name [97]
##    pha_name                                  cohort             target_cities_s~
##    <chr>                                     <chr>                         <dbl>
##  1 akron metropolitan housing authority      Stepped and Tiere~                1
##  2 alaska housing finance corporation        Initial                           2
##  3 ann arbor housing commission              Landlord Incentiv~                1
##  4 berkeley housing authority                Landlord Incentiv~                1
##  5 boulder housing partners                  Initial                           2
##  6 brattleboro housing authority             MTW Flexibility f~                0
##  7 bristol redevelopment & housing authority MTW Flexibility f~                0
##  8 brockton housing authority                Landlord Incentiv~                1
##  9 burlington housing authority              Landlord Incentiv~                0
## 10 cambridge housing authority               Initial                           8
## # ... with 87 more rows
…
